[
    {
        "id": "#1",
        "tiling" : {
            "type" : "square"
        },
        "maze-type" : "grid",
        "app" : {
            "generator-names" : ["manhatten", "m"]
        },
        "connector" : "de.speexx.maze.domain.ManhattenNeighborhood$ManhattenNeighborhoodConnector",
        "tiler" : "de.speexx.maze.graphics.ManhattenTiler",
        "description" : "Simple grid with squares (▢). Rectangles are also possible. See also https://en.wikipedia.org/wiki/Square_tiling"
    },
    {
        "id": "#2",
        "tiling" : {
            "type" : "triangular"
        },
        "maze-type" : "grid",
        "app" : {
            "generator-names" : ["triangle", "t"]
        },
        "connector" : "de.speexx.maze.domain.TriangleNeighborhood$TriangleNeighborhoodConnector",
        "tiler" : "de.speexx.maze.graphics.TriangularTiler",
        "description" : "◁▷ - See https://en.wikipedia.org/wiki/Triangular_tiling"
    },
    {
        "id": "#3",
        "tiling" : {
            "type" : "triangular",
            "subtype" : "right"
        },
        "maze-type" : "grid",
        "app" : {
            "generator-names" : ["triangle-right", "tr"]
        },
        "connector" : "de.speexx.maze.domain.TriangleNeighborhood$TriangleRightNeighborhoodConnector",
        "tiler" : "de.speexx.maze.graphics.TriangularRightTiler",
        "description" : "Support for cmm symmetry of right triangles which is a combination of an upper right triangle (◹) with a lower left triangle (◺) to a square element. See also https://en.wikipedia.org/wiki/Triangular_tiling"
    },
    {
        "id": "#4",
        "tiling" : {
            "type" : "hexagonal"
        },
        "maze-type" : "grid",
        "app" : {
            "generator-names" : ["hexagon", "h"]
        },
        "connector" : "de.speexx.maze.domain.HexagonNeighborhood$HexagonalNeighborhoodConnector",
        "tiler" : "de.speexx.maze.graphics.HexagonTiler",
        "description" : "⬡ - see also https://en.wikipedia.org/wiki/Hexagonal_tiling"
    },
    {
        "id": "#5",
        "tiling" : {
            "type" : "tetrakis",
            "subtype" : "square"
        },
        "maze-type" : "grid",
        "app" : {
            "generator-names" : ["tetrakis-square", "ts"]
        },
        "connector" : "de.speexx.maze.domain.TriangleNeighborhood$TetrakisSquareNeighborhoodConnector",
        "tiler" : "de.speexx.maze.graphics.TetrakisSquareTiler",
        "description" : "See also https://en.wikipedia.org/wiki/Tetrakis_square_tiling"
    }
]
